Andreina,Montanari,0212792146
Gioacchino,Abba,2319125198
Girolamo Giovanni,Barzetti,0266984534
Domenica,Palladino,4754078721
Emilio,Sordi,3026545356
Rossana,Quattrocchi,2251704289
Concettina,Alo,4302284397
Vitalia,Moschella,1495031693
Corrado,D'ambrosio,5475994898
Gioconda,Sapienti,0048477229
Valente,Pagano,3115241382
Peppi,Belmonte,8837022406
Nerina,Roncalli,5525909033
Adriana,Confortola,5940079278
Adelaide,Altamura,0523864429
Filippo,Tiberio,3662924964
Valente,Pagano,3115241382
Peppi,Belmonte,8837022406
Nerina,Roncalli,5525909033
Adriana,Confortola,5940079278
Adelaide,Altamura,0523864429
Filippo,Tiberio,3662924964
Baldo,Romano,3642689032
Rolando,Carnevale,7951858450
Lia,Acerbi,2743546789
Rosella,Aloi,3202105402
Lucia,Cino,2442583532
Rufino,Bagnoli,2442583532
Amedea,Sala,6566276563
Ester,Garofalo,9123601708
Silvestro,Carbone,6061800409
Scilla,Rana,7866096002
Amaranta,Aquino,9091745770
Angelino,Abbatelli,5857758495
Gaspare,Vinci,5297691309
Loredana,Fausti,7695827549
Ermete,Nenci,7658528907
Manuele,Guidi,2712623937
Savio,Padovano,8469672226
Angelina,Armani,3139409603
Eliodoro,Costa,4901998112
Tancredi,Nespola,4180802035
Giannina,Benenati,3028253601
Arsenio,Serafin,3303660971
Edoardo,Negrini,8249956212
Clarissa,Leccese,1258042354
Frediano,Costa,5011892563
Agatino,Tedesco,2128016062
Leone,Fermi,0558478832
Edoardo,Negrini,6587557817
Clarissa,Leccese,3199268980
Frediano,Costa,9897879203
Agatino,Tedesco,2574310702
Leone,Fermi,4337350796
Ermete,Nenci,2895370813
Urbano,Morra,6528517353
Eligio,Ambrogi,3329130223
Eliodoro,Costa,3131920997
Brigida,Ungaro,9699857001
Gerolamo,Petri,7467395696
Patrizio,Nazario,4820387989
Gioachino,Riva,0509791672
Elmo,Baldi,2794998383
Savio,Fortunato,1966764575
Artemio Epifanio,Alescio,4522092918
Severo Tommaso,Bellandi,0451922933
Scilla Oria,Lama,5991747088
Graziana Gianfranco,Piazza,1902374608
Flaviana Andreina,Bandoni,0016414610
Patrizia Peppe,De Lorenzo,3640668562
Rico Ivano,Petri,5498914623
Geltrude Augusta,Rao,4848754982
Vittore Enzo,Bosco,8612160179
Maura Edda,Gori,8062934157
Cesarina,Aita,9868539061
Bice,Conti,3038945579
Raffaele,Altimari,2318249721
Viola,Biancardi,4518596705
Albina,Borghi,2518159075
Cesarina,Aita,8428968204
Bice,Conti,5260849882
Michele,Rossi,5410366409